30604252406150716  G:/PACMAN/EARTH/downloaded_files/new/UTRECHT/30604252406150/30604252406150716-21/30604252406150716.nbt
30604252406150724  G:/PACMAN/EARTH/downloaded_files/new/UTRECHT/30604252406150/30604252406150724-21/30604252406150724.nbt
30604252406150725  G:/PACMAN/EARTH/downloaded_files/new/UTRECHT/30604252406150/30604252406150725-21/30604252406150725.nbt
30604252406150726  G:/PACMAN/EARTH/downloaded_files/new/UTRECHT/30604252406150/30604252406150726-21/30604252406150726.nbt
30604252406150727  G:/PACMAN/EARTH/downloaded_files/new/UTRECHT/30604252406150/30604252406150727-21/30604252406150727.nbt
30604252406150734  G:/PACMAN/EARTH/downloaded_files/new/UTRECHT/30604252406150/30604252406150734-21/30604252406150734.nbt
30604252406150735  G:/PACMAN/EARTH/downloaded_files/new/UTRECHT/30604252406150/30604252406150735-21/30604252406150735.nbt
30604252406150736  G:/PACMAN/EARTH/downloaded_files/new/UTRECHT/30604252406150/30604252406150736-21/30604252406150736.nbt
30604252406152504  G:/PACMAN/EARTH/downloaded_files/new/UTRECHT/30604252406152/30604252406152504-21/30604252406152504.nbt

X=240 Y=148
X=238 Y=149
X=239 Y=149
X=238 Y=150
X=239 Y=150
X=240 Y=149
X=241 Y=149
X=240 Y=150
X=238 Y=151