(['to_geo.py'],
 ['D:\\PACMAN\\PACMAN_CUBERITE', 'D:\\PACMAN\\PACMAN_CUBERITE\\project-obj'],
 ['jnius_config', 'codecs'],
 ['c:\\python39\\lib\\site-packages\\PyMCTranslate\\__pyinstaller',
  'c:\\python39\\lib\\site-packages\\_pyinstaller_hooks_contrib\\hooks\\stdhooks',
  'c:\\python39\\lib\\site-packages\\_pyinstaller_hooks_contrib\\hooks\\stdhooks\\__pycache__',
  'c:\\python39\\lib\\site-packages\\_pyinstaller_hooks_contrib\\hooks\\rthooks',
  'c:\\python39\\lib\\site-packages\\_pyinstaller_hooks_contrib\\hooks\\rthooks\\__pycache__',
  'c:\\python39\\lib\\site-packages\\_pyinstaller_hooks_contrib\\hooks',
  'c:\\python39\\lib\\site-packages\\amulet\\__pyinstaller'],
 [],
 [],
 False,
 False,
 '3.9.1 (tags/v3.9.1:1e5d33e, Dec  7 2020, 17:08:21) [MSC v.1927 64 bit '
 '(AMD64)]',
 [('pyi_rth_multiprocessing',
   'C:\\Python39\\Lib\\site-packages\\PyInstaller\\hooks\\rthooks\\pyi_rth_multiprocessing.py',
   'PYSOURCE'),
  ('pyi_rth_pkgres',
   'C:\\Python39\\Lib\\site-packages\\PyInstaller\\hooks\\rthooks\\pyi_rth_pkgres.py',
   'PYSOURCE'),
  ('to_geo', 'D:\\PACMAN\\PACMAN_CUBERITE\\to_geo.py', 'PYSOURCE')],
 [('pkg_resources',
   'c:\\python39\\lib\\site-packages\\pkg_resources\\__init__.py',
   'PYMODULE'),
  ('pkg_resources._vendor.packaging.utils',
   'c:\\python39\\lib\\site-packages\\pkg_resources\\_vendor\\packaging\\utils.py',
   'PYMODULE'),
  ('typing', 'c:\\python39\\lib\\typing.py', 'PYMODULE'),
  ('contextlib', 'c:\\python39\\lib\\contextlib.py', 'PYMODULE'),
  ('__future__', 'c:\\python39\\lib\\__future__.py', 'PYMODULE'),
  ('pkg_resources._vendor.pyparsing',
   'c:\\python39\\lib\\site-packages\\pkg_resources\\_vendor\\pyparsing.py',
   'PYMODULE'),
  ('uuid', 'c:\\python39\\lib\\uuid.py', 'PYMODULE'),
  ('hashlib', 'c:\\python39\\lib\\hashlib.py', 'PYMODULE'),
  ('logging', 'c:\\python39\\lib\\logging\\__init__.py', 'PYMODULE'),
  ('pickle', 'c:\\python39\\lib\\pickle.py', 'PYMODULE'),
  ('doctest', 'c:\\python39\\lib\\doctest.py', 'PYMODULE'),
  ('argparse', 'c:\\python39\\lib\\argparse.py', 'PYMODULE'),
  ('gettext', 'c:\\python39\\lib\\gettext.py', 'PYMODULE'),
  ('unittest', 'c:\\python39\\lib\\unittest\\__init__.py', 'PYMODULE'),
  ('unittest.async_case',
   'c:\\python39\\lib\\unittest\\async_case.py',
   'PYMODULE'),
  ('asyncio', 'c:\\python39\\lib\\asyncio\\__init__.py', 'PYMODULE'),
  ('asyncio.unix_events',
   'c:\\python39\\lib\\asyncio\\unix_events.py',
   'PYMODULE'),
  ('asyncio.log', 'c:\\python39\\lib\\asyncio\\log.py', 'PYMODULE'),
  ('signal', 'c:\\python39\\lib\\signal.py', 'PYMODULE'),
  ('selectors', 'c:\\python39\\lib\\selectors.py', 'PYMODULE'),
  ('asyncio.windows_events',
   'c:\\python39\\lib\\asyncio\\windows_events.py',
   'PYMODULE'),
  ('asyncio.windows_utils',
   'c:\\python39\\lib\\asyncio\\windows_utils.py',
   'PYMODULE'),
  ('asyncio.selector_events',
   'c:\\python39\\lib\\asyncio\\selector_events.py',
   'PYMODULE'),
  ('ssl', 'c:\\python39\\lib\\ssl.py', 'PYMODULE'),
  ('calendar', 'c:\\python39\\lib\\calendar.py', 'PYMODULE'),
  ('base64', 'c:\\python39\\lib\\base64.py', 'PYMODULE'),
  ('getopt', 'c:\\python39\\lib\\getopt.py', 'PYMODULE'),
  ('asyncio.proactor_events',
   'c:\\python39\\lib\\asyncio\\proactor_events.py',
   'PYMODULE'),
  ('asyncio.base_subprocess',
   'c:\\python39\\lib\\asyncio\\base_subprocess.py',
   'PYMODULE'),
  ('asyncio.threads', 'c:\\python39\\lib\\asyncio\\threads.py', 'PYMODULE'),
  ('contextvars', 'c:\\python39\\lib\\contextvars.py', 'PYMODULE'),
  ('asyncio.subprocess',
   'c:\\python39\\lib\\asyncio\\subprocess.py',
   'PYMODULE'),
  ('asyncio.streams', 'c:\\python39\\lib\\asyncio\\streams.py', 'PYMODULE'),
  ('asyncio.queues', 'c:\\python39\\lib\\asyncio\\queues.py', 'PYMODULE'),
  ('asyncio.runners', 'c:\\python39\\lib\\asyncio\\runners.py', 'PYMODULE'),
  ('asyncio.events', 'c:\\python39\\lib\\asyncio\\events.py', 'PYMODULE'),
  ('asyncio.base_events',
   'c:\\python39\\lib\\asyncio\\base_events.py',
   'PYMODULE'),
  ('concurrent.futures',
   'c:\\python39\\lib\\concurrent\\futures\\__init__.py',
   'PYMODULE'),
  ('concurrent.futures.thread',
   'c:\\python39\\lib\\concurrent\\futures\\thread.py',
   'PYMODULE'),
  ('queue', 'c:\\python39\\lib\\queue.py', 'PYMODULE'),
  ('concurrent.futures.process',
   'c:\\python39\\lib\\concurrent\\futures\\process.py',
   'PYMODULE'),
  ('multiprocessing.queues',
   'c:\\python39\\lib\\multiprocessing\\queues.py',
   'PYMODULE'),
  ('multiprocessing.synchronize',
   'c:\\python39\\lib\\multiprocessing\\synchronize.py',
   'PYMODULE'),
  ('multiprocessing.heap',
   'c:\\python39\\lib\\multiprocessing\\heap.py',
   'PYMODULE'),
  ('bisect', 'c:\\python39\\lib\\bisect.py', 'PYMODULE'),
  ('multiprocessing.resource_tracker',
   'c:\\python39\\lib\\multiprocessing\\resource_tracker.py',
   'PYMODULE'),
  ('multiprocessing.spawn',
   'c:\\python39\\lib\\multiprocessing\\spawn.py',
   'PYMODULE'),
  ('runpy', 'c:\\python39\\lib\\runpy.py', 'PYMODULE'),
  ('importlib.util', 'c:\\python39\\lib\\importlib\\util.py', 'PYMODULE'),
  ('importlib._bootstrap_external',
   'c:\\python39\\lib\\importlib\\_bootstrap_external.py',
   'PYMODULE'),
  ('importlib.metadata',
   'c:\\python39\\lib\\importlib\\metadata.py',
   'PYMODULE'),
  ('configparser', 'c:\\python39\\lib\\configparser.py', 'PYMODULE'),
  ('pathlib', 'c:\\python39\\lib\\pathlib.py', 'PYMODULE'),
  ('urllib.parse', 'c:\\python39\\lib\\urllib\\parse.py', 'PYMODULE'),
  ('urllib', 'c:\\python39\\lib\\urllib\\__init__.py', 'PYMODULE'),
  ('fnmatch', 'c:\\python39\\lib\\fnmatch.py', 'PYMODULE'),
  ('email', 'c:\\python39\\lib\\email\\__init__.py', 'PYMODULE'),
  ('email._header_value_parser',
   'c:\\python39\\lib\\email\\_header_value_parser.py',
   'PYMODULE'),
  ('email.utils', 'c:\\python39\\lib\\email\\utils.py', 'PYMODULE'),
  ('email._parseaddr', 'c:\\python39\\lib\\email\\_parseaddr.py', 'PYMODULE'),
  ('email._encoded_words',
   'c:\\python39\\lib\\email\\_encoded_words.py',
   'PYMODULE'),
  ('email.header', 'c:\\python39\\lib\\email\\header.py', 'PYMODULE'),
  ('email.base64mime', 'c:\\python39\\lib\\email\\base64mime.py', 'PYMODULE'),
  ('email.quoprimime', 'c:\\python39\\lib\\email\\quoprimime.py', 'PYMODULE'),
  ('email.charset', 'c:\\python39\\lib\\email\\charset.py', 'PYMODULE'),
  ('email.encoders', 'c:\\python39\\lib\\email\\encoders.py', 'PYMODULE'),
  ('quopri', 'c:\\python39\\lib\\quopri.py', 'PYMODULE'),
  ('email.errors', 'c:\\python39\\lib\\email\\errors.py', 'PYMODULE'),
  ('csv', 'c:\\python39\\lib\\csv.py', 'PYMODULE'),
  ('tokenize', 'c:\\python39\\lib\\tokenize.py', 'PYMODULE'),
  ('token', 'c:\\python39\\lib\\token.py', 'PYMODULE'),
  ('importlib._bootstrap',
   'c:\\python39\\lib\\importlib\\_bootstrap.py',
   'PYMODULE'),
  ('importlib.abc', 'c:\\python39\\lib\\importlib\\abc.py', 'PYMODULE'),
  ('importlib', 'c:\\python39\\lib\\importlib\\__init__.py', 'PYMODULE'),
  ('multiprocessing.process',
   'c:\\python39\\lib\\multiprocessing\\process.py',
   'PYMODULE'),
  ('multiprocessing.util',
   'c:\\python39\\lib\\multiprocessing\\util.py',
   'PYMODULE'),
  ('multiprocessing.forkserver',
   'c:\\python39\\lib\\multiprocessing\\forkserver.py',
   'PYMODULE'),
  ('multiprocessing.context',
   'c:\\python39\\lib\\multiprocessing\\context.py',
   'PYMODULE'),
  ('multiprocessing.popen_spawn_win32',
   'c:\\python39\\lib\\multiprocessing\\popen_spawn_win32.py',
   'PYMODULE'),
  ('multiprocessing.popen_forkserver',
   'c:\\python39\\lib\\multiprocessing\\popen_forkserver.py',
   'PYMODULE'),
  ('multiprocessing.popen_spawn_posix',
   'c:\\python39\\lib\\multiprocessing\\popen_spawn_posix.py',
   'PYMODULE'),
  ('multiprocessing.popen_fork',
   'c:\\python39\\lib\\multiprocessing\\popen_fork.py',
   'PYMODULE'),
  ('multiprocessing.sharedctypes',
   'c:\\python39\\lib\\multiprocessing\\sharedctypes.py',
   'PYMODULE'),
  ('ctypes', 'c:\\python39\\lib\\ctypes\\__init__.py', 'PYMODULE'),
  ('ctypes._endian', 'c:\\python39\\lib\\ctypes\\_endian.py', 'PYMODULE'),
  ('multiprocessing.pool',
   'c:\\python39\\lib\\multiprocessing\\pool.py',
   'PYMODULE'),
  ('multiprocessing.dummy',
   'c:\\python39\\lib\\multiprocessing\\dummy\\__init__.py',
   'PYMODULE'),
  ('multiprocessing.dummy.connection',
   'c:\\python39\\lib\\multiprocessing\\dummy\\connection.py',
   'PYMODULE'),
  ('multiprocessing.managers',
   'c:\\python39\\lib\\multiprocessing\\managers.py',
   'PYMODULE'),
  ('multiprocessing.shared_memory',
   'c:\\python39\\lib\\multiprocessing\\shared_memory.py',
   'PYMODULE'),
  ('secrets', 'c:\\python39\\lib\\secrets.py', 'PYMODULE'),
  ('hmac', 'c:\\python39\\lib\\hmac.py', 'PYMODULE'),
  ('multiprocessing.reduction',
   'c:\\python39\\lib\\multiprocessing\\reduction.py',
   'PYMODULE'),
  ('multiprocessing.resource_sharer',
   'c:\\python39\\lib\\multiprocessing\\resource_sharer.py',
   'PYMODULE'),
  ('multiprocessing.connection',
   'c:\\python39\\lib\\multiprocessing\\connection.py',
   'PYMODULE'),
  ('xmlrpc.client', 'c:\\python39\\lib\\xmlrpc\\client.py', 'PYMODULE'),
  ('xmlrpc', 'c:\\python39\\lib\\xmlrpc\\__init__.py', 'PYMODULE'),
  ('gzip', 'c:\\python39\\lib\\gzip.py', 'PYMODULE'),
  ('_compression', 'c:\\python39\\lib\\_compression.py', 'PYMODULE'),
  ('xml.parsers.expat',
   'c:\\python39\\lib\\xml\\parsers\\expat.py',
   'PYMODULE'),
  ('xml.parsers', 'c:\\python39\\lib\\xml\\parsers\\__init__.py', 'PYMODULE'),
  ('xml', 'c:\\python39\\lib\\xml\\__init__.py', 'PYMODULE'),
  ('xml.sax.expatreader',
   'c:\\python39\\lib\\xml\\sax\\expatreader.py',
   'PYMODULE'),
  ('xml.sax.saxutils', 'c:\\python39\\lib\\xml\\sax\\saxutils.py', 'PYMODULE'),
  ('urllib.request', 'c:\\python39\\lib\\urllib\\request.py', 'PYMODULE'),
  ('getpass', 'c:\\python39\\lib\\getpass.py', 'PYMODULE'),
  ('nturl2path', 'c:\\python39\\lib\\nturl2path.py', 'PYMODULE'),
  ('ftplib', 'c:\\python39\\lib\\ftplib.py', 'PYMODULE'),
  ('netrc', 'c:\\python39\\lib\\netrc.py', 'PYMODULE'),
  ('shlex', 'c:\\python39\\lib\\shlex.py', 'PYMODULE'),
  ('mimetypes', 'c:\\python39\\lib\\mimetypes.py', 'PYMODULE'),
  ('http.cookiejar', 'c:\\python39\\lib\\http\\cookiejar.py', 'PYMODULE'),
  ('http', 'c:\\python39\\lib\\http\\__init__.py', 'PYMODULE'),
  ('urllib.response', 'c:\\python39\\lib\\urllib\\response.py', 'PYMODULE'),
  ('urllib.error', 'c:\\python39\\lib\\urllib\\error.py', 'PYMODULE'),
  ('xml.sax', 'c:\\python39\\lib\\xml\\sax\\__init__.py', 'PYMODULE'),
  ('xml.sax.handler', 'c:\\python39\\lib\\xml\\sax\\handler.py', 'PYMODULE'),
  ('xml.sax._exceptions',
   'c:\\python39\\lib\\xml\\sax\\_exceptions.py',
   'PYMODULE'),
  ('xml.sax.xmlreader',
   'c:\\python39\\lib\\xml\\sax\\xmlreader.py',
   'PYMODULE'),
  ('http.client', 'c:\\python39\\lib\\http\\client.py', 'PYMODULE'),
  ('email.message', 'c:\\python39\\lib\\email\\message.py', 'PYMODULE'),
  ('email.policy', 'c:\\python39\\lib\\email\\policy.py', 'PYMODULE'),
  ('email.contentmanager',
   'c:\\python39\\lib\\email\\contentmanager.py',
   'PYMODULE'),
  ('email.headerregistry',
   'c:\\python39\\lib\\email\\headerregistry.py',
   'PYMODULE'),
  ('email.iterators', 'c:\\python39\\lib\\email\\iterators.py', 'PYMODULE'),
  ('email.generator', 'c:\\python39\\lib\\email\\generator.py', 'PYMODULE'),
  ('email._policybase', 'c:\\python39\\lib\\email\\_policybase.py', 'PYMODULE'),
  ('uu', 'c:\\python39\\lib\\uu.py', 'PYMODULE'),
  ('optparse', 'c:\\python39\\lib\\optparse.py', 'PYMODULE'),
  ('decimal', 'c:\\python39\\lib\\decimal.py', 'PYMODULE'),
  ('_pydecimal', 'c:\\python39\\lib\\_pydecimal.py', 'PYMODULE'),
  ('numbers', 'c:\\python39\\lib\\numbers.py', 'PYMODULE'),
  ('multiprocessing',
   'c:\\python39\\lib\\multiprocessing\\__init__.py',
   'PYMODULE'),
  ('concurrent.futures._base',
   'c:\\python39\\lib\\concurrent\\futures\\_base.py',
   'PYMODULE'),
  ('concurrent', 'c:\\python39\\lib\\concurrent\\__init__.py', 'PYMODULE'),
  ('asyncio.trsock', 'c:\\python39\\lib\\asyncio\\trsock.py', 'PYMODULE'),
  ('asyncio.staggered', 'c:\\python39\\lib\\asyncio\\staggered.py', 'PYMODULE'),
  ('asyncio.tasks', 'c:\\python39\\lib\\asyncio\\tasks.py', 'PYMODULE'),
  ('asyncio.base_tasks',
   'c:\\python39\\lib\\asyncio\\base_tasks.py',
   'PYMODULE'),
  ('asyncio.locks', 'c:\\python39\\lib\\asyncio\\locks.py', 'PYMODULE'),
  ('asyncio.sslproto', 'c:\\python39\\lib\\asyncio\\sslproto.py', 'PYMODULE'),
  ('asyncio.transports',
   'c:\\python39\\lib\\asyncio\\transports.py',
   'PYMODULE'),
  ('asyncio.protocols', 'c:\\python39\\lib\\asyncio\\protocols.py', 'PYMODULE'),
  ('asyncio.futures', 'c:\\python39\\lib\\asyncio\\futures.py', 'PYMODULE'),
  ('asyncio.exceptions',
   'c:\\python39\\lib\\asyncio\\exceptions.py',
   'PYMODULE'),
  ('asyncio.coroutines',
   'c:\\python39\\lib\\asyncio\\coroutines.py',
   'PYMODULE'),
  ('asyncio.base_futures',
   'c:\\python39\\lib\\asyncio\\base_futures.py',
   'PYMODULE'),
  ('asyncio.format_helpers',
   'c:\\python39\\lib\\asyncio\\format_helpers.py',
   'PYMODULE'),
  ('asyncio.constants', 'c:\\python39\\lib\\asyncio\\constants.py', 'PYMODULE'),
  ('unittest.signals', 'c:\\python39\\lib\\unittest\\signals.py', 'PYMODULE'),
  ('unittest.main', 'c:\\python39\\lib\\unittest\\main.py', 'PYMODULE'),
  ('unittest.runner', 'c:\\python39\\lib\\unittest\\runner.py', 'PYMODULE'),
  ('unittest.loader', 'c:\\python39\\lib\\unittest\\loader.py', 'PYMODULE'),
  ('unittest.suite', 'c:\\python39\\lib\\unittest\\suite.py', 'PYMODULE'),
  ('unittest.case', 'c:\\python39\\lib\\unittest\\case.py', 'PYMODULE'),
  ('unittest._log', 'c:\\python39\\lib\\unittest\\_log.py', 'PYMODULE'),
  ('unittest.result', 'c:\\python39\\lib\\unittest\\result.py', 'PYMODULE'),
  ('unittest.util', 'c:\\python39\\lib\\unittest\\util.py', 'PYMODULE'),
  ('difflib', 'c:\\python39\\lib\\difflib.py', 'PYMODULE'),
  ('_compat_pickle', 'c:\\python39\\lib\\_compat_pickle.py', 'PYMODULE'),
  ('struct', 'c:\\python39\\lib\\struct.py', 'PYMODULE'),
  ('random', 'c:\\python39\\lib\\random.py', 'PYMODULE'),
  ('statistics', 'c:\\python39\\lib\\statistics.py', 'PYMODULE'),
  ('fractions', 'c:\\python39\\lib\\fractions.py', 'PYMODULE'),
  ('socket', 'c:\\python39\\lib\\socket.py', 'PYMODULE'),
  ('subprocess', 'c:\\python39\\lib\\subprocess.py', 'PYMODULE'),
  ('shutil', 'c:\\python39\\lib\\shutil.py', 'PYMODULE'),
  ('tarfile', 'c:\\python39\\lib\\tarfile.py', 'PYMODULE'),
  ('lzma', 'c:\\python39\\lib\\lzma.py', 'PYMODULE'),
  ('bz2', 'c:\\python39\\lib\\bz2.py', 'PYMODULE'),
  ('pdb', 'c:\\python39\\lib\\pdb.py', 'PYMODULE'),
  ('pydoc', 'c:\\python39\\lib\\pydoc.py', 'PYMODULE'),
  ('webbrowser', 'c:\\python39\\lib\\webbrowser.py', 'PYMODULE'),
  ('http.server', 'c:\\python39\\lib\\http\\server.py', 'PYMODULE'),
  ('socketserver', 'c:\\python39\\lib\\socketserver.py', 'PYMODULE'),
  ('html', 'c:\\python39\\lib\\html\\__init__.py', 'PYMODULE'),
  ('html.entities', 'c:\\python39\\lib\\html\\entities.py', 'PYMODULE'),
  ('pydoc_data.topics', 'c:\\python39\\lib\\pydoc_data\\topics.py', 'PYMODULE'),
  ('pydoc_data', 'c:\\python39\\lib\\pydoc_data\\__init__.py', 'PYMODULE'),
  ('tty', 'c:\\python39\\lib\\tty.py', 'PYMODULE'),
  ('glob', 'c:\\python39\\lib\\glob.py', 'PYMODULE'),
  ('code', 'c:\\python39\\lib\\code.py', 'PYMODULE'),
  ('codeop', 'c:\\python39\\lib\\codeop.py', 'PYMODULE'),
  ('dis', 'c:\\python39\\lib\\dis.py', 'PYMODULE'),
  ('opcode', 'c:\\python39\\lib\\opcode.py', 'PYMODULE'),
  ('bdb', 'c:\\python39\\lib\\bdb.py', 'PYMODULE'),
  ('cmd', 'c:\\python39\\lib\\cmd.py', 'PYMODULE'),
  ('threading', 'c:\\python39\\lib\\threading.py', 'PYMODULE'),
  ('_threading_local', 'c:\\python39\\lib\\_threading_local.py', 'PYMODULE'),
  ('datetime', 'c:\\python39\\lib\\datetime.py', 'PYMODULE'),
  ('_strptime', 'c:\\python39\\lib\\_strptime.py', 'PYMODULE'),
  ('pprint', 'c:\\python39\\lib\\pprint.py', 'PYMODULE'),
  ('copy', 'c:\\python39\\lib\\copy.py', 'PYMODULE'),
  ('string', 'c:\\python39\\lib\\string.py', 'PYMODULE'),
  ('pkg_resources._vendor.packaging._typing',
   'c:\\python39\\lib\\site-packages\\pkg_resources\\_vendor\\packaging\\_typing.py',
   'PYMODULE'),
  ('pkg_resources._vendor.packaging._structures',
   'c:\\python39\\lib\\site-packages\\pkg_resources\\_vendor\\packaging\\_structures.py',
   'PYMODULE'),
  ('pkg_resources._vendor.packaging.version',
   'c:\\python39\\lib\\site-packages\\pkg_resources\\_vendor\\packaging\\version.py',
   'PYMODULE'),
  ('pkg_resources._vendor.packaging.markers',
   'c:\\python39\\lib\\site-packages\\pkg_resources\\_vendor\\packaging\\markers.py',
   'PYMODULE'),
  ('pkg_resources._vendor.appdirs',
   'c:\\python39\\lib\\site-packages\\pkg_resources\\_vendor\\appdirs.py',
   'PYMODULE'),
  ('pkg_resources._vendor.packaging.tags',
   'c:\\python39\\lib\\site-packages\\pkg_resources\\_vendor\\packaging\\tags.py',
   'PYMODULE'),
  ('distutils.util', 'c:\\python39\\lib\\distutils\\util.py', 'PYMODULE'),
  ('distutils.filelist',
   'c:\\python39\\lib\\distutils\\filelist.py',
   'PYMODULE'),
  ('distutils.debug', 'c:\\python39\\lib\\distutils\\debug.py', 'PYMODULE'),
  ('distutils.file_util',
   'c:\\python39\\lib\\distutils\\file_util.py',
   'PYMODULE'),
  ('distutils.dir_util',
   'c:\\python39\\lib\\distutils\\dir_util.py',
   'PYMODULE'),
  ('py_compile', 'c:\\python39\\lib\\py_compile.py', 'PYMODULE'),
  ('distutils.sysconfig',
   'c:\\python39\\lib\\distutils\\sysconfig.py',
   'PYMODULE'),
  ('distutils.text_file',
   'c:\\python39\\lib\\distutils\\text_file.py',
   'PYMODULE'),
  ('_osx_support', 'c:\\python39\\lib\\_osx_support.py', 'PYMODULE'),
  ('_aix_support', 'c:\\python39\\lib\\_aix_support.py', 'PYMODULE'),
  ('_bootsubprocess', 'c:\\python39\\lib\\_bootsubprocess.py', 'PYMODULE'),
  ('distutils.log', 'c:\\python39\\lib\\distutils\\log.py', 'PYMODULE'),
  ('distutils', 'c:\\python39\\lib\\distutils\\__init__.py', 'PYMODULE'),
  ('distutils.archive_util',
   'c:\\python39\\lib\\distutils\\archive_util.py',
   'PYMODULE'),
  ('distutils.ccompiler',
   'c:\\python39\\lib\\distutils\\ccompiler.py',
   'PYMODULE'),
  ('distutils.fancy_getopt',
   'c:\\python39\\lib\\distutils\\fancy_getopt.py',
   'PYMODULE'),
  ('distutils.spawn', 'c:\\python39\\lib\\distutils\\spawn.py', 'PYMODULE'),
  ('distutils.dep_util',
   'c:\\python39\\lib\\distutils\\dep_util.py',
   'PYMODULE'),
  ('distutils.errors', 'c:\\python39\\lib\\distutils\\errors.py', 'PYMODULE'),
  ('pkg_resources._vendor.packaging._compat',
   'c:\\python39\\lib\\site-packages\\pkg_resources\\_vendor\\packaging\\_compat.py',
   'PYMODULE'),
  ('pkg_resources._vendor.packaging.specifiers',
   'c:\\python39\\lib\\site-packages\\pkg_resources\\_vendor\\packaging\\specifiers.py',
   'PYMODULE'),
  ('pkg_resources._vendor.packaging.__about__',
   'c:\\python39\\lib\\site-packages\\pkg_resources\\_vendor\\packaging\\__about__.py',
   'PYMODULE'),
  ('pkg_resources._vendor.packaging',
   'c:\\python39\\lib\\site-packages\\pkg_resources\\_vendor\\packaging\\__init__.py',
   'PYMODULE'),
  ('pkg_resources._vendor',
   'c:\\python39\\lib\\site-packages\\pkg_resources\\_vendor\\__init__.py',
   'PYMODULE'),
  ('pkg_resources._vendor.packaging.requirements',
   'c:\\python39\\lib\\site-packages\\pkg_resources\\_vendor\\packaging\\requirements.py',
   'PYMODULE'),
  ('sysconfig', 'c:\\python39\\lib\\sysconfig.py', 'PYMODULE'),
  ('pkg_resources.extern',
   'c:\\python39\\lib\\site-packages\\pkg_resources\\extern\\__init__.py',
   'PYMODULE'),
  ('importlib.machinery',
   'c:\\python39\\lib\\importlib\\machinery.py',
   'PYMODULE'),
  ('imp', 'c:\\python39\\lib\\imp.py', 'PYMODULE'),
  ('posixpath', 'c:\\python39\\lib\\posixpath.py', 'PYMODULE'),
  ('genericpath', 'c:\\python39\\lib\\genericpath.py', 'PYMODULE'),
  ('ntpath', 'c:\\python39\\lib\\ntpath.py', 'PYMODULE'),
  ('inspect', 'c:\\python39\\lib\\inspect.py', 'PYMODULE'),
  ('ast', 'c:\\python39\\lib\\ast.py', 'PYMODULE'),
  ('textwrap', 'c:\\python39\\lib\\textwrap.py', 'PYMODULE'),
  ('tempfile', 'c:\\python39\\lib\\tempfile.py', 'PYMODULE'),
  ('email.parser', 'c:\\python39\\lib\\email\\parser.py', 'PYMODULE'),
  ('email.feedparser', 'c:\\python39\\lib\\email\\feedparser.py', 'PYMODULE'),
  ('plistlib', 'c:\\python39\\lib\\plistlib.py', 'PYMODULE'),
  ('platform', 'c:\\python39\\lib\\platform.py', 'PYMODULE'),
  ('pkgutil', 'c:\\python39\\lib\\pkgutil.py', 'PYMODULE'),
  ('stat', 'c:\\python39\\lib\\stat.py', 'PYMODULE'),
  ('zipimport', 'c:\\python39\\lib\\zipimport.py', 'PYMODULE'),
  ('zipfile', 'c:\\python39\\lib\\zipfile.py', 'PYMODULE'),
  ('os', 'c:\\python39\\lib\\os.py', 'PYMODULE'),
  ('_py_abc', 'c:\\python39\\lib\\_py_abc.py', 'PYMODULE'),
  ('stringprep', 'c:\\python39\\lib\\stringprep.py', 'PYMODULE'),
  ('tracemalloc', 'c:\\python39\\lib\\tracemalloc.py', 'PYMODULE'),
  ('jnius', 'c:\\python39\\lib\\site-packages\\jnius\\__init__.py', 'PYMODULE'),
  ('six', 'c:\\python39\\lib\\site-packages\\six.py', 'PYMODULE'),
  ('jnius.reflect',
   'c:\\python39\\lib\\site-packages\\jnius\\reflect.py',
   'PYMODULE'),
  ('jnius.env', 'c:\\python39\\lib\\site-packages\\jnius\\env.py', 'PYMODULE'),
  ('jnius_config',
   'c:\\python39\\lib\\site-packages\\jnius_config.py',
   'PYMODULE'),
  ('numpy', 'c:\\python39\\lib\\site-packages\\numpy\\__init__.py', 'PYMODULE'),
  ('numpy._pytesttester',
   'c:\\python39\\lib\\site-packages\\numpy\\_pytesttester.py',
   'PYMODULE'),
  ('numpy.distutils.cpuinfo',
   'c:\\python39\\lib\\site-packages\\numpy\\distutils\\cpuinfo.py',
   'PYMODULE'),
  ('numpy.distutils',
   'c:\\python39\\lib\\site-packages\\numpy\\distutils\\__init__.py',
   'PYMODULE'),
  ('numpy.distutils.fcompiler',
   'c:\\python39\\lib\\site-packages\\numpy\\distutils\\fcompiler\\__init__.py',
   'PYMODULE'),
  ('numpy.distutils.command.config_compiler',
   'c:\\python39\\lib\\site-packages\\numpy\\distutils\\command\\config_compiler.py',
   'PYMODULE'),
  ('numpy.distutils.command',
   'c:\\python39\\lib\\site-packages\\numpy\\distutils\\command\\__init__.py',
   'PYMODULE'),
  ('numpy.distutils.command.egg_info',
   'c:\\python39\\lib\\site-packages\\numpy\\distutils\\command\\egg_info.py',
   'PYMODULE'),
  ('setuptools.command.egg_info',
   'c:\\python39\\lib\\site-packages\\setuptools\\command\\egg_info.py',
   'PYMODULE'),
  ('setuptools.extern',
   'c:\\python39\\lib\\site-packages\\setuptools\\extern\\__init__.py',
   'PYMODULE'),
  ('setuptools.glob',
   'c:\\python39\\lib\\site-packages\\setuptools\\glob.py',
   'PYMODULE'),
  ('setuptools.unicode_utils',
   'c:\\python39\\lib\\site-packages\\setuptools\\unicode_utils.py',
   'PYMODULE'),
  ('setuptools.command.bdist_egg',
   'c:\\python39\\lib\\site-packages\\setuptools\\command\\bdist_egg.py',
   'PYMODULE'),
  ('setuptools.extension',
   'c:\\python39\\lib\\site-packages\\setuptools\\extension.py',
   'PYMODULE'),
  ('setuptools.monkey',
   'c:\\python39\\lib\\site-packages\\setuptools\\monkey.py',
   'PYMODULE'),
  ('distutils.extension',
   'c:\\python39\\lib\\distutils\\extension.py',
   'PYMODULE'),
  ('setuptools.command',
   'c:\\python39\\lib\\site-packages\\setuptools\\command\\__init__.py',
   'PYMODULE'),
  ('setuptools.command.install_scripts',
   'c:\\python39\\lib\\site-packages\\setuptools\\command\\install_scripts.py',
   'PYMODULE'),
  ('setuptools.command.easy_install',
   'c:\\python39\\lib\\site-packages\\setuptools\\command\\easy_install.py',
   'PYMODULE'),
  ('setuptools.dist',
   'c:\\python39\\lib\\site-packages\\setuptools\\dist.py',
   'PYMODULE'),
  ('setuptools.installer',
   'c:\\python39\\lib\\site-packages\\setuptools\\installer.py',
   'PYMODULE'),
  ('setuptools.config',
   'c:\\python39\\lib\\site-packages\\setuptools\\config.py',
   'PYMODULE'),
  ('setuptools.windows_support',
   'c:\\python39\\lib\\site-packages\\setuptools\\windows_support.py',
   'PYMODULE'),
  ('distutils.version', 'c:\\python39\\lib\\distutils\\version.py', 'PYMODULE'),
  ('distutils.cmd', 'c:\\python39\\lib\\distutils\\cmd.py', 'PYMODULE'),
  ('setuptools.wheel',
   'c:\\python39\\lib\\site-packages\\setuptools\\wheel.py',
   'PYMODULE'),
  ('setuptools.package_index',
   'c:\\python39\\lib\\site-packages\\setuptools\\package_index.py',
   'PYMODULE'),
  ('setuptools.ssl_support',
   'c:\\python39\\lib\\site-packages\\setuptools\\ssl_support.py',
   'PYMODULE'),
  ('setuptools.archive_util',
   'c:\\python39\\lib\\site-packages\\setuptools\\archive_util.py',
   'PYMODULE'),
  ('setuptools.sandbox',
   'c:\\python39\\lib\\site-packages\\setuptools\\sandbox.py',
   'PYMODULE'),
  ('site',
   'c:\\python39\\lib\\site-packages\\PyInstaller\\fake-modules\\site.py',
   'PYMODULE'),
  ('distutils.command.build_scripts',
   'c:\\python39\\lib\\distutils\\command\\build_scripts.py',
   'PYMODULE'),
  ('distutils.command',
   'c:\\python39\\lib\\distutils\\command\\__init__.py',
   'PYMODULE'),
  ('distutils.command.install',
   'c:\\python39\\lib\\distutils\\command\\install.py',
   'PYMODULE'),
  ('distutils.command.install_scripts',
   'c:\\python39\\lib\\distutils\\command\\install_scripts.py',
   'PYMODULE'),
  ('distutils.command.bdist',
   'c:\\python39\\lib\\distutils\\command\\bdist.py',
   'PYMODULE'),
  ('setuptools.command.setopt',
   'c:\\python39\\lib\\site-packages\\setuptools\\command\\setopt.py',
   'PYMODULE'),
  ('setuptools.command.sdist',
   'c:\\python39\\lib\\site-packages\\setuptools\\command\\sdist.py',
   'PYMODULE'),
  ('setuptools.command.py36compat',
   'c:\\python39\\lib\\site-packages\\setuptools\\command\\py36compat.py',
   'PYMODULE'),
  ('distutils.command.sdist',
   'c:\\python39\\lib\\distutils\\command\\sdist.py',
   'PYMODULE'),
  ('setuptools',
   'c:\\python39\\lib\\site-packages\\setuptools\\__init__.py',
   'PYMODULE'),
  ('setuptools._vendor.packaging.__about__',
   'c:\\python39\\lib\\site-packages\\setuptools\\_vendor\\packaging\\__about__.py',
   'PYMODULE'),
  ('setuptools._vendor.packaging.version',
   'c:\\python39\\lib\\site-packages\\setuptools\\_vendor\\packaging\\version.py',
   'PYMODULE'),
  ('setuptools._vendor.packaging',
   'c:\\python39\\lib\\site-packages\\setuptools\\_vendor\\packaging\\__init__.py',
   'PYMODULE'),
  ('setuptools._vendor.ordered_set',
   'c:\\python39\\lib\\site-packages\\setuptools\\_vendor\\ordered_set.py',
   'PYMODULE'),
  ('setuptools._vendor',
   'c:\\python39\\lib\\site-packages\\setuptools\\_vendor\\__init__.py',
   'PYMODULE'),
  ('setuptools._vendor.packaging._structures',
   'c:\\python39\\lib\\site-packages\\setuptools\\_vendor\\packaging\\_structures.py',
   'PYMODULE'),
  ('setuptools._vendor.packaging.markers',
   'c:\\python39\\lib\\site-packages\\setuptools\\_vendor\\packaging\\markers.py',
   'PYMODULE'),
  ('setuptools._vendor.packaging._compat',
   'c:\\python39\\lib\\site-packages\\setuptools\\_vendor\\packaging\\_compat.py',
   'PYMODULE'),
  ('setuptools._vendor.pyparsing',
   'c:\\python39\\lib\\site-packages\\setuptools\\_vendor\\pyparsing.py',
   'PYMODULE'),
  ('setuptools._vendor.packaging.specifiers',
   'c:\\python39\\lib\\site-packages\\setuptools\\_vendor\\packaging\\specifiers.py',
   'PYMODULE'),
  ('setuptools._vendor.packaging.requirements',
   'c:\\python39\\lib\\site-packages\\setuptools\\_vendor\\packaging\\requirements.py',
   'PYMODULE'),
  ('setuptools._vendor.packaging._typing',
   'c:\\python39\\lib\\site-packages\\setuptools\\_vendor\\packaging\\_typing.py',
   'PYMODULE'),
  ('setuptools._vendor.packaging.utils',
   'c:\\python39\\lib\\site-packages\\setuptools\\_vendor\\packaging\\utils.py',
   'PYMODULE'),
  ('setuptools._vendor.packaging.tags',
   'c:\\python39\\lib\\site-packages\\setuptools\\_vendor\\packaging\\tags.py',
   'PYMODULE'),
  ('setuptools.msvc',
   'c:\\python39\\lib\\site-packages\\setuptools\\msvc.py',
   'PYMODULE'),
  ('distutils.msvc9compiler',
   'c:\\python39\\lib\\distutils\\msvc9compiler.py',
   'PYMODULE'),
  ('json', 'c:\\python39\\lib\\json\\__init__.py', 'PYMODULE'),
  ('json.encoder', 'c:\\python39\\lib\\json\\encoder.py', 'PYMODULE'),
  ('json.decoder', 'c:\\python39\\lib\\json\\decoder.py', 'PYMODULE'),
  ('json.scanner', 'c:\\python39\\lib\\json\\scanner.py', 'PYMODULE'),
  ('distutils.command.build_ext',
   'c:\\python39\\lib\\distutils\\command\\build_ext.py',
   'PYMODULE'),
  ('distutils._msvccompiler',
   'c:\\python39\\lib\\distutils\\_msvccompiler.py',
   'PYMODULE'),
  ('setuptools.namespaces',
   'c:\\python39\\lib\\site-packages\\setuptools\\namespaces.py',
   'PYMODULE'),
  ('setuptools.depends',
   'c:\\python39\\lib\\site-packages\\setuptools\\depends.py',
   'PYMODULE'),
  ('setuptools._imp',
   'c:\\python39\\lib\\site-packages\\setuptools\\_imp.py',
   'PYMODULE'),
  ('setuptools.py34compat',
   'c:\\python39\\lib\\site-packages\\setuptools\\py34compat.py',
   'PYMODULE'),
  ('setuptools.version',
   'c:\\python39\\lib\\site-packages\\setuptools\\version.py',
   'PYMODULE'),
  ('setuptools._deprecation_warning',
   'c:\\python39\\lib\\site-packages\\setuptools\\_deprecation_warning.py',
   'PYMODULE'),
  ('_distutils_hack.override',
   'c:\\python39\\lib\\site-packages\\_distutils_hack\\override.py',
   'PYMODULE'),
  ('_distutils_hack',
   'c:\\python39\\lib\\site-packages\\_distutils_hack\\__init__.py',
   'PYMODULE'),
  ('numpy.distutils.command.develop',
   'c:\\python39\\lib\\site-packages\\numpy\\distutils\\command\\develop.py',
   'PYMODULE'),
  ('setuptools.command.develop',
   'c:\\python39\\lib\\site-packages\\setuptools\\command\\develop.py',
   'PYMODULE'),
  ('numpy.distutils.command.install_clib',
   'c:\\python39\\lib\\site-packages\\numpy\\distutils\\command\\install_clib.py',
   'PYMODULE'),
  ('numpy.distutils.command.bdist_rpm',
   'c:\\python39\\lib\\site-packages\\numpy\\distutils\\command\\bdist_rpm.py',
   'PYMODULE'),
  ('distutils.command.bdist_rpm',
   'c:\\python39\\lib\\distutils\\command\\bdist_rpm.py',
   'PYMODULE'),
  ('setuptools.command.bdist_rpm',
   'c:\\python39\\lib\\site-packages\\setuptools\\command\\bdist_rpm.py',
   'PYMODULE'),
  ('numpy.distutils.command.install',
   'c:\\python39\\lib\\site-packages\\numpy\\distutils\\command\\install.py',
   'PYMODULE'),
  ('setuptools.command.install',
   'c:\\python39\\lib\\site-packages\\setuptools\\command\\install.py',
   'PYMODULE'),
  ('numpy.distutils.command.install_headers',
   'c:\\python39\\lib\\site-packages\\numpy\\distutils\\command\\install_headers.py',
   'PYMODULE'),
  ('distutils.command.install_headers',
   'c:\\python39\\lib\\distutils\\command\\install_headers.py',
   'PYMODULE'),
  ('numpy.distutils.command.install_data',
   'c:\\python39\\lib\\site-packages\\numpy\\distutils\\command\\install_data.py',
   'PYMODULE'),
  ('distutils.command.install_data',
   'c:\\python39\\lib\\distutils\\command\\install_data.py',
   'PYMODULE'),
  ('numpy.distutils.command.sdist',
   'c:\\python39\\lib\\site-packages\\numpy\\distutils\\command\\sdist.py',
   'PYMODULE'),
  ('numpy.distutils.command.build_scripts',
   'c:\\python39\\lib\\site-packages\\numpy\\distutils\\command\\build_scripts.py',
   'PYMODULE'),
  ('numpy.distutils.command.build_clib',
   'c:\\python39\\lib\\site-packages\\numpy\\distutils\\command\\build_clib.py',
   'PYMODULE'),
  ('numpy.distutils.ccompiler_opt',
   'c:\\python39\\lib\\site-packages\\numpy\\distutils\\ccompiler_opt.py',
   'PYMODULE'),
  ('distutils.command.build_clib',
   'c:\\python39\\lib\\distutils\\command\\build_clib.py',
   'PYMODULE'),
  ('numpy.distutils.command.build_ext',
   'c:\\python39\\lib\\site-packages\\numpy\\distutils\\command\\build_ext.py',
   'PYMODULE'),
  ('numpy.distutils.system_info',
   'c:\\python39\\lib\\site-packages\\numpy\\distutils\\system_info.py',
   'PYMODULE'),
  ('numpy.f2py',
   'c:\\python39\\lib\\site-packages\\numpy\\f2py\\__init__.py',
   'PYMODULE'),
  ('numpy.f2py.f2py_testing',
   'c:\\python39\\lib\\site-packages\\numpy\\f2py\\f2py_testing.py',
   'PYMODULE'),
  ('numpy.f2py.diagnose',
   'c:\\python39\\lib\\site-packages\\numpy\\f2py\\diagnose.py',
   'PYMODULE'),
  ('numpy.f2py.f2py2e',
   'c:\\python39\\lib\\site-packages\\numpy\\f2py\\f2py2e.py',
   'PYMODULE'),
  ('numpy.distutils.command.build_src',
   'c:\\python39\\lib\\site-packages\\numpy\\distutils\\command\\build_src.py',
   'PYMODULE'),
  ('numpy.distutils.conv_template',
   'c:\\python39\\lib\\site-packages\\numpy\\distutils\\conv_template.py',
   'PYMODULE'),
  ('numpy.distutils.from_template',
   'c:\\python39\\lib\\site-packages\\numpy\\distutils\\from_template.py',
   'PYMODULE'),
  ('numpy.f2py.auxfuncs',
   'c:\\python39\\lib\\site-packages\\numpy\\f2py\\auxfuncs.py',
   'PYMODULE'),
  ('numpy.f2py.f90mod_rules',
   'c:\\python39\\lib\\site-packages\\numpy\\f2py\\f90mod_rules.py',
   'PYMODULE'),
  ('numpy.f2py.rules',
   'c:\\python39\\lib\\site-packages\\numpy\\f2py\\rules.py',
   'PYMODULE'),
  ('numpy.f2py.use_rules',
   'c:\\python39\\lib\\site-packages\\numpy\\f2py\\use_rules.py',
   'PYMODULE'),
  ('numpy.f2py.common_rules',
   'c:\\python39\\lib\\site-packages\\numpy\\f2py\\common_rules.py',
   'PYMODULE'),
  ('numpy.f2py.func2subr',
   'c:\\python39\\lib\\site-packages\\numpy\\f2py\\func2subr.py',
   'PYMODULE'),
  ('numpy.f2py.crackfortran',
   'c:\\python39\\lib\\site-packages\\numpy\\f2py\\crackfortran.py',
   'PYMODULE'),
  ('fileinput', 'c:\\python39\\lib\\fileinput.py', 'PYMODULE'),
  ('numpy.f2py.cb_rules',
   'c:\\python39\\lib\\site-packages\\numpy\\f2py\\cb_rules.py',
   'PYMODULE'),
  ('numpy.f2py.capi_maps',
   'c:\\python39\\lib\\site-packages\\numpy\\f2py\\capi_maps.py',
   'PYMODULE'),
  ('numpy.f2py.cfuncs',
   'c:\\python39\\lib\\site-packages\\numpy\\f2py\\cfuncs.py',
   'PYMODULE'),
  ('numpy.f2py.__version__',
   'c:\\python39\\lib\\site-packages\\numpy\\f2py\\__version__.py',
   'PYMODULE'),
  ('numpy.version',
   'c:\\python39\\lib\\site-packages\\numpy\\version.py',
   'PYMODULE'),
  ('numpy.distutils.command.build_py',
   'c:\\python39\\lib\\site-packages\\numpy\\distutils\\command\\build_py.py',
   'PYMODULE'),
  ('distutils.command.build_py',
   'c:\\python39\\lib\\distutils\\command\\build_py.py',
   'PYMODULE'),
  ('numpy.distutils.command.build',
   'c:\\python39\\lib\\site-packages\\numpy\\distutils\\command\\build.py',
   'PYMODULE'),
  ('distutils.command.build',
   'c:\\python39\\lib\\distutils\\command\\build.py',
   'PYMODULE'),
  ('numpy.distutils.command.config',
   'c:\\python39\\lib\\site-packages\\numpy\\distutils\\command\\config.py',
   'PYMODULE'),
  ('numpy.distutils.command.autodist',
   'c:\\python39\\lib\\site-packages\\numpy\\distutils\\command\\autodist.py',
   'PYMODULE'),
  ('numpy.distutils.mingw32ccompiler',
   'c:\\python39\\lib\\site-packages\\numpy\\distutils\\mingw32ccompiler.py',
   'PYMODULE'),
  ('distutils.msvccompiler',
   'c:\\python39\\lib\\distutils\\msvccompiler.py',
   'PYMODULE'),
  ('distutils.unixccompiler',
   'c:\\python39\\lib\\distutils\\unixccompiler.py',
   'PYMODULE'),
  ('distutils.cygwinccompiler',
   'c:\\python39\\lib\\distutils\\cygwinccompiler.py',
   'PYMODULE'),
  ('distutils.command.config',
   'c:\\python39\\lib\\distutils\\command\\config.py',
   'PYMODULE'),
  ('distutils.core', 'c:\\python39\\lib\\distutils\\core.py', 'PYMODULE'),
  ('distutils.config', 'c:\\python39\\lib\\distutils\\config.py', 'PYMODULE'),
  ('cgi', 'c:\\python39\\lib\\cgi.py', 'PYMODULE'),
  ('distutils.dist', 'c:\\python39\\lib\\distutils\\dist.py', 'PYMODULE'),
  ('distutils.versionpredicate',
   'c:\\python39\\lib\\distutils\\versionpredicate.py',
   'PYMODULE'),
  ('numpy.distutils.core',
   'c:\\python39\\lib\\site-packages\\numpy\\distutils\\core.py',
   'PYMODULE'),
  ('numpy.distutils.numpy_distribution',
   'c:\\python39\\lib\\site-packages\\numpy\\distutils\\numpy_distribution.py',
   'PYMODULE'),
  ('numpy.distutils.extension',
   'c:\\python39\\lib\\site-packages\\numpy\\distutils\\extension.py',
   'PYMODULE'),
  ('numpy.distutils.fcompiler.environment',
   'c:\\python39\\lib\\site-packages\\numpy\\distutils\\fcompiler\\environment.py',
   'PYMODULE'),
  ('numpy.distutils.exec_command',
   'c:\\python39\\lib\\site-packages\\numpy\\distutils\\exec_command.py',
   'PYMODULE'),
  ('numpy.distutils.misc_util',
   'c:\\python39\\lib\\site-packages\\numpy\\distutils\\misc_util.py',
   'PYMODULE'),
  ('curses', 'c:\\python39\\lib\\curses\\__init__.py', 'PYMODULE'),
  ('curses.has_key', 'c:\\python39\\lib\\curses\\has_key.py', 'PYMODULE'),
  ('numpy.distutils.__config__',
   'c:\\python39\\lib\\site-packages\\numpy\\distutils\\__config__.py',
   'PYMODULE'),
  ('numpy.distutils.npy_pkg_config',
   'c:\\python39\\lib\\site-packages\\numpy\\distutils\\npy_pkg_config.py',
   'PYMODULE'),
  ('numpy.distutils.unixccompiler',
   'c:\\python39\\lib\\site-packages\\numpy\\distutils\\unixccompiler.py',
   'PYMODULE'),
  ('numpy.distutils.ccompiler',
   'c:\\python39\\lib\\site-packages\\numpy\\distutils\\ccompiler.py',
   'PYMODULE'),
  ('numpy.distutils._shell_utils',
   'c:\\python39\\lib\\site-packages\\numpy\\distutils\\_shell_utils.py',
   'PYMODULE'),
  ('pipes', 'c:\\python39\\lib\\pipes.py', 'PYMODULE'),
  ('numpy.distutils.lib2def',
   'c:\\python39\\lib\\site-packages\\numpy\\distutils\\lib2def.py',
   'PYMODULE'),
  ('numpy.distutils.log',
   'c:\\python39\\lib\\site-packages\\numpy\\distutils\\log.py',
   'PYMODULE'),
  ('numpy.testing',
   'c:\\python39\\lib\\site-packages\\numpy\\testing\\__init__.py',
   'PYMODULE'),
  ('numpy.testing._private.nosetester',
   'c:\\python39\\lib\\site-packages\\numpy\\testing\\_private\\nosetester.py',
   'PYMODULE'),
  ('numpy.testing._private.noseclasses',
   'c:\\python39\\lib\\site-packages\\numpy\\testing\\_private\\noseclasses.py',
   'PYMODULE'),
  ('numpy.testing._private.decorators',
   'c:\\python39\\lib\\site-packages\\numpy\\testing\\_private\\decorators.py',
   'PYMODULE'),
  ('numpy.testing._private.parameterized',
   'c:\\python39\\lib\\site-packages\\numpy\\testing\\_private\\parameterized.py',
   'PYMODULE'),
  ('numpy.testing._private',
   'c:\\python39\\lib\\site-packages\\numpy\\testing\\_private\\__init__.py',
   'PYMODULE'),
  ('numpy.testing._private.utils',
   'c:\\python39\\lib\\site-packages\\numpy\\testing\\_private\\utils.py',
   'PYMODULE'),
  ('numpy.core.fromnumeric',
   'c:\\python39\\lib\\site-packages\\numpy\\core\\fromnumeric.py',
   'PYMODULE'),
  ('numpy.core._methods',
   'c:\\python39\\lib\\site-packages\\numpy\\core\\_methods.py',
   'PYMODULE'),
  ('numpy.lib.stride_tricks',
   'c:\\python39\\lib\\site-packages\\numpy\\lib\\stride_tricks.py',
   'PYMODULE'),
  ('numpy.core.numeric',
   'c:\\python39\\lib\\site-packages\\numpy\\core\\numeric.py',
   'PYMODULE'),
  ('numpy.core._asarray',
   'c:\\python39\\lib\\site-packages\\numpy\\core\\_asarray.py',
   'PYMODULE'),
  ('numpy.core.arrayprint',
   'c:\\python39\\lib\\site-packages\\numpy\\core\\arrayprint.py',
   'PYMODULE'),
  ('numpy.core._ufunc_config',
   'c:\\python39\\lib\\site-packages\\numpy\\core\\_ufunc_config.py',
   'PYMODULE'),
  ('numpy.core.shape_base',
   'c:\\python39\\lib\\site-packages\\numpy\\core\\shape_base.py',
   'PYMODULE'),
  ('numpy.core._exceptions',
   'c:\\python39\\lib\\site-packages\\numpy\\core\\_exceptions.py',
   'PYMODULE'),
  ('numpy.core.umath',
   'c:\\python39\\lib\\site-packages\\numpy\\core\\umath.py',
   'PYMODULE'),
  ('numpy.core.overrides',
   'c:\\python39\\lib\\site-packages\\numpy\\core\\overrides.py',
   'PYMODULE'),
  ('numpy.compat._inspect',
   'c:\\python39\\lib\\site-packages\\numpy\\compat\\_inspect.py',
   'PYMODULE'),
  ('numpy.core.multiarray',
   'c:\\python39\\lib\\site-packages\\numpy\\core\\multiarray.py',
   'PYMODULE'),
  ('numpy.core.numerictypes',
   'c:\\python39\\lib\\site-packages\\numpy\\core\\numerictypes.py',
   'PYMODULE'),
  ('numpy.core._dtype',
   'c:\\python39\\lib\\site-packages\\numpy\\core\\_dtype.py',
   'PYMODULE'),
  ('numpy.core._type_aliases',
   'c:\\python39\\lib\\site-packages\\numpy\\core\\_type_aliases.py',
   'PYMODULE'),
  ('numpy.core._string_helpers',
   'c:\\python39\\lib\\site-packages\\numpy\\core\\_string_helpers.py',
   'PYMODULE'),
  ('numpy.matrixlib',
   'c:\\python39\\lib\\site-packages\\numpy\\matrixlib\\__init__.py',
   'PYMODULE'),
  ('numpy.matrixlib.defmatrix',
   'c:\\python39\\lib\\site-packages\\numpy\\matrixlib\\defmatrix.py',
   'PYMODULE'),
  ('numpy.ma',
   'c:\\python39\\lib\\site-packages\\numpy\\ma\\__init__.py',
   'PYMODULE'),
  ('numpy.ma.extras',
   'c:\\python39\\lib\\site-packages\\numpy\\ma\\extras.py',
   'PYMODULE'),
  ('numpy.lib.index_tricks',
   'c:\\python39\\lib\\site-packages\\numpy\\lib\\index_tricks.py',
   'PYMODULE'),
  ('numpy.lib.function_base',
   'c:\\python39\\lib\\site-packages\\numpy\\lib\\function_base.py',
   'PYMODULE'),
  ('numpy.lib.histograms',
   'c:\\python39\\lib\\site-packages\\numpy\\lib\\histograms.py',
   'PYMODULE'),
  ('numpy.lib.twodim_base',
   'c:\\python39\\lib\\site-packages\\numpy\\lib\\twodim_base.py',
   'PYMODULE'),
  ('numpy.core.function_base',
   'c:\\python39\\lib\\site-packages\\numpy\\core\\function_base.py',
   'PYMODULE'),
  ('numpy.ma.core',
   'c:\\python39\\lib\\site-packages\\numpy\\ma\\core.py',
   'PYMODULE'),
  ('numpy.core._internal',
   'c:\\python39\\lib\\site-packages\\numpy\\core\\_internal.py',
   'PYMODULE'),
  ('numpy.ctypeslib',
   'c:\\python39\\lib\\site-packages\\numpy\\ctypeslib.py',
   'PYMODULE'),
  ('numpy.random',
   'c:\\python39\\lib\\site-packages\\numpy\\random\\__init__.py',
   'PYMODULE'),
  ('numpy.random._pickle',
   'c:\\python39\\lib\\site-packages\\numpy\\random\\_pickle.py',
   'PYMODULE'),
  ('numpy.polynomial',
   'c:\\python39\\lib\\site-packages\\numpy\\polynomial\\__init__.py',
   'PYMODULE'),
  ('numpy.polynomial._polybase',
   'c:\\python39\\lib\\site-packages\\numpy\\polynomial\\_polybase.py',
   'PYMODULE'),
  ('numpy.polynomial.laguerre',
   'c:\\python39\\lib\\site-packages\\numpy\\polynomial\\laguerre.py',
   'PYMODULE'),
  ('numpy.polynomial.hermite_e',
   'c:\\python39\\lib\\site-packages\\numpy\\polynomial\\hermite_e.py',
   'PYMODULE'),
  ('numpy.polynomial.hermite',
   'c:\\python39\\lib\\site-packages\\numpy\\polynomial\\hermite.py',
   'PYMODULE'),
  ('numpy.polynomial.legendre',
   'c:\\python39\\lib\\site-packages\\numpy\\polynomial\\legendre.py',
   'PYMODULE'),
  ('numpy.polynomial.chebyshev',
   'c:\\python39\\lib\\site-packages\\numpy\\polynomial\\chebyshev.py',
   'PYMODULE'),
  ('numpy.polynomial.polynomial',
   'c:\\python39\\lib\\site-packages\\numpy\\polynomial\\polynomial.py',
   'PYMODULE'),
  ('numpy.polynomial.polyutils',
   'c:\\python39\\lib\\site-packages\\numpy\\polynomial\\polyutils.py',
   'PYMODULE'),
  ('numpy.fft',
   'c:\\python39\\lib\\site-packages\\numpy\\fft\\__init__.py',
   'PYMODULE'),
  ('numpy.fft.helper',
   'c:\\python39\\lib\\site-packages\\numpy\\fft\\helper.py',
   'PYMODULE'),
  ('numpy.fft._pocketfft',
   'c:\\python39\\lib\\site-packages\\numpy\\fft\\_pocketfft.py',
   'PYMODULE'),
  ('numpy.linalg',
   'c:\\python39\\lib\\site-packages\\numpy\\linalg\\__init__.py',
   'PYMODULE'),
  ('numpy.linalg.linalg',
   'c:\\python39\\lib\\site-packages\\numpy\\linalg\\linalg.py',
   'PYMODULE'),
  ('numpy.lib',
   'c:\\python39\\lib\\site-packages\\numpy\\lib\\__init__.py',
   'PYMODULE'),
  ('numpy.lib._version',
   'c:\\python39\\lib\\site-packages\\numpy\\lib\\_version.py',
   'PYMODULE'),
  ('numpy.lib.arraypad',
   'c:\\python39\\lib\\site-packages\\numpy\\lib\\arraypad.py',
   'PYMODULE'),
  ('numpy.lib.arrayterator',
   'c:\\python39\\lib\\site-packages\\numpy\\lib\\arrayterator.py',
   'PYMODULE'),
  ('numpy.lib.npyio',
   'c:\\python39\\lib\\site-packages\\numpy\\lib\\npyio.py',
   'PYMODULE'),
  ('numpy.ma.mrecords',
   'c:\\python39\\lib\\site-packages\\numpy\\ma\\mrecords.py',
   'PYMODULE'),
  ('numpy.core.records',
   'c:\\python39\\lib\\site-packages\\numpy\\core\\records.py',
   'PYMODULE'),
  ('numpy.lib._iotools',
   'c:\\python39\\lib\\site-packages\\numpy\\lib\\_iotools.py',
   'PYMODULE'),
  ('numpy.lib._datasource',
   'c:\\python39\\lib\\site-packages\\numpy\\lib\\_datasource.py',
   'PYMODULE'),
  ('numpy.lib.format',
   'c:\\python39\\lib\\site-packages\\numpy\\lib\\format.py',
   'PYMODULE'),
  ('numpy.lib.arraysetops',
   'c:\\python39\\lib\\site-packages\\numpy\\lib\\arraysetops.py',
   'PYMODULE'),
  ('numpy.lib.utils',
   'c:\\python39\\lib\\site-packages\\numpy\\lib\\utils.py',
   'PYMODULE'),
  ('numpy.lib.polynomial',
   'c:\\python39\\lib\\site-packages\\numpy\\lib\\polynomial.py',
   'PYMODULE'),
  ('numpy.lib.ufunclike',
   'c:\\python39\\lib\\site-packages\\numpy\\lib\\ufunclike.py',
   'PYMODULE'),
  ('numpy.lib.shape_base',
   'c:\\python39\\lib\\site-packages\\numpy\\lib\\shape_base.py',
   'PYMODULE'),
  ('numpy.lib.nanfunctions',
   'c:\\python39\\lib\\site-packages\\numpy\\lib\\nanfunctions.py',
   'PYMODULE'),
  ('numpy.lib.type_check',
   'c:\\python39\\lib\\site-packages\\numpy\\lib\\type_check.py',
   'PYMODULE'),
  ('numpy.core.getlimits',
   'c:\\python39\\lib\\site-packages\\numpy\\core\\getlimits.py',
   'PYMODULE'),
  ('numpy.core.machar',
   'c:\\python39\\lib\\site-packages\\numpy\\core\\machar.py',
   'PYMODULE'),
  ('numpy.lib.scimath',
   'c:\\python39\\lib\\site-packages\\numpy\\lib\\scimath.py',
   'PYMODULE'),
  ('numpy.lib.mixins',
   'c:\\python39\\lib\\site-packages\\numpy\\lib\\mixins.py',
   'PYMODULE'),
  ('numpy.compat',
   'c:\\python39\\lib\\site-packages\\numpy\\compat\\__init__.py',
   'PYMODULE'),
  ('numpy.compat.py3k',
   'c:\\python39\\lib\\site-packages\\numpy\\compat\\py3k.py',
   'PYMODULE'),
  ('numpy.core',
   'c:\\python39\\lib\\site-packages\\numpy\\core\\__init__.py',
   'PYMODULE'),
  ('numpy.core._dtype_ctypes',
   'c:\\python39\\lib\\site-packages\\numpy\\core\\_dtype_ctypes.py',
   'PYMODULE'),
  ('numpy.core._add_newdocs_scalars',
   'c:\\python39\\lib\\site-packages\\numpy\\core\\_add_newdocs_scalars.py',
   'PYMODULE'),
  ('numpy.core._add_newdocs',
   'c:\\python39\\lib\\site-packages\\numpy\\core\\_add_newdocs.py',
   'PYMODULE'),
  ('numpy.core.einsumfunc',
   'c:\\python39\\lib\\site-packages\\numpy\\core\\einsumfunc.py',
   'PYMODULE'),
  ('numpy.core.memmap',
   'c:\\python39\\lib\\site-packages\\numpy\\core\\memmap.py',
   'PYMODULE'),
  ('numpy.core.defchararray',
   'c:\\python39\\lib\\site-packages\\numpy\\core\\defchararray.py',
   'PYMODULE'),
  ('numpy._distributor_init',
   'c:\\python39\\lib\\site-packages\\numpy\\_distributor_init.py',
   'PYMODULE'),
  ('numpy._version',
   'c:\\python39\\lib\\site-packages\\numpy\\_version.py',
   'PYMODULE'),
  ('numpy.__config__',
   'c:\\python39\\lib\\site-packages\\numpy\\__config__.py',
   'PYMODULE'),
  ('numpy._globals',
   'c:\\python39\\lib\\site-packages\\numpy\\_globals.py',
   'PYMODULE')],
 [('VCRUNTIME140.dll', 'c:\\python39\\VCRUNTIME140.dll', 'BINARY'),
  ('api-ms-win-crt-locale-l1-1-0.dll',
   'C:\\Program Files (x86)\\Windows Kits\\10\\Windows Performance '
   'Toolkit\\api-ms-win-crt-locale-l1-1-0.dll',
   'BINARY'),
  ('api-ms-win-crt-stdio-l1-1-0.dll',
   'C:\\Program Files (x86)\\Windows Kits\\10\\Windows Performance '
   'Toolkit\\api-ms-win-crt-stdio-l1-1-0.dll',
   'BINARY'),
  ('api-ms-win-crt-math-l1-1-0.dll',
   'C:\\Program Files (x86)\\Windows Kits\\10\\Windows Performance '
   'Toolkit\\api-ms-win-crt-math-l1-1-0.dll',
   'BINARY'),
  ('api-ms-win-crt-runtime-l1-1-0.dll',
   'C:\\Program Files (x86)\\Windows Kits\\10\\Windows Performance '
   'Toolkit\\api-ms-win-crt-runtime-l1-1-0.dll',
   'BINARY'),
  ('api-ms-win-crt-heap-l1-1-0.dll',
   'C:\\Program Files (x86)\\Windows Kits\\10\\Windows Performance '
   'Toolkit\\api-ms-win-crt-heap-l1-1-0.dll',
   'BINARY'),
  ('python39.dll', 'c:\\python39\\python39.dll', 'BINARY'),
  ('api-ms-win-crt-string-l1-1-0.dll',
   'C:\\Program Files (x86)\\Windows Kits\\10\\Windows Performance '
   'Toolkit\\api-ms-win-crt-string-l1-1-0.dll',
   'BINARY'),
  ('api-ms-win-crt-convert-l1-1-0.dll',
   'C:\\Program Files (x86)\\Windows Kits\\10\\Windows Performance '
   'Toolkit\\api-ms-win-crt-convert-l1-1-0.dll',
   'BINARY'),
  ('ucrtbase.dll',
   'C:\\Program Files (x86)\\Windows Kits\\10\\Windows Performance '
   'Toolkit\\ucrtbase.dll',
   'BINARY'),
  ('api-ms-win-crt-conio-l1-1-0.dll',
   'C:\\Program Files (x86)\\Windows Kits\\10\\Windows Performance '
   'Toolkit\\api-ms-win-crt-conio-l1-1-0.dll',
   'BINARY'),
  ('api-ms-win-crt-filesystem-l1-1-0.dll',
   'C:\\Program Files (x86)\\Windows Kits\\10\\Windows Performance '
   'Toolkit\\api-ms-win-crt-filesystem-l1-1-0.dll',
   'BINARY'),
  ('api-ms-win-crt-time-l1-1-0.dll',
   'C:\\Program Files (x86)\\Windows Kits\\10\\Windows Performance '
   'Toolkit\\api-ms-win-crt-time-l1-1-0.dll',
   'BINARY'),
  ('api-ms-win-crt-environment-l1-1-0.dll',
   'C:\\Program Files (x86)\\Windows Kits\\10\\Windows Performance '
   'Toolkit\\api-ms-win-crt-environment-l1-1-0.dll',
   'BINARY'),
  ('api-ms-win-crt-process-l1-1-0.dll',
   'C:\\Program Files (x86)\\Windows Kits\\10\\Windows Performance '
   'Toolkit\\api-ms-win-crt-process-l1-1-0.dll',
   'BINARY'),
  ('api-ms-win-core-processthreads-l1-1-0.dll',
   'C:\\Program Files (x86)\\Windows Kits\\10\\Windows Performance '
   'Toolkit\\api-ms-win-core-processthreads-l1-1-0.dll',
   'BINARY'),
  ('api-ms-win-core-namedpipe-l1-1-0.dll',
   'C:\\Program Files (x86)\\Windows Kits\\10\\Windows Performance '
   'Toolkit\\api-ms-win-core-namedpipe-l1-1-0.dll',
   'BINARY'),
  ('api-ms-win-core-string-l1-1-0.dll',
   'C:\\Program Files (x86)\\Windows Kits\\10\\Windows Performance '
   'Toolkit\\api-ms-win-core-string-l1-1-0.dll',
   'BINARY'),
  ('api-ms-win-core-datetime-l1-1-0.dll',
   'C:\\Program Files (x86)\\Windows Kits\\10\\Windows Performance '
   'Toolkit\\api-ms-win-core-datetime-l1-1-0.dll',
   'BINARY'),
  ('api-ms-win-core-file-l1-2-0.dll',
   'C:\\Program Files (x86)\\Windows Kits\\10\\Windows Performance '
   'Toolkit\\api-ms-win-core-file-l1-2-0.dll',
   'BINARY'),
  ('api-ms-win-core-util-l1-1-0.dll',
   'C:\\Program Files (x86)\\Windows Kits\\10\\Windows Performance '
   'Toolkit\\api-ms-win-core-util-l1-1-0.dll',
   'BINARY'),
  ('api-ms-win-core-handle-l1-1-0.dll',
   'C:\\Program Files (x86)\\Windows Kits\\10\\Windows Performance '
   'Toolkit\\api-ms-win-core-handle-l1-1-0.dll',
   'BINARY'),
  ('api-ms-win-core-processenvironment-l1-1-0.dll',
   'C:\\Program Files (x86)\\Windows Kits\\10\\Windows Performance '
   'Toolkit\\api-ms-win-core-processenvironment-l1-1-0.dll',
   'BINARY'),
  ('api-ms-win-core-processthreads-l1-1-1.dll',
   'C:\\Program Files (x86)\\Windows Kits\\10\\Windows Performance '
   'Toolkit\\api-ms-win-core-processthreads-l1-1-1.dll',
   'BINARY'),
  ('api-ms-win-core-rtlsupport-l1-1-0.dll',
   'C:\\Program Files (x86)\\Windows Kits\\10\\Windows Performance '
   'Toolkit\\api-ms-win-core-rtlsupport-l1-1-0.dll',
   'BINARY'),
  ('api-ms-win-core-heap-l1-1-0.dll',
   'C:\\Program Files (x86)\\Windows Kits\\10\\Windows Performance '
   'Toolkit\\api-ms-win-core-heap-l1-1-0.dll',
   'BINARY'),
  ('api-ms-win-core-file-l1-1-0.dll',
   'C:\\Program Files (x86)\\Windows Kits\\10\\Windows Performance '
   'Toolkit\\api-ms-win-core-file-l1-1-0.dll',
   'BINARY'),
  ('api-ms-win-core-sysinfo-l1-1-0.dll',
   'C:\\Program Files (x86)\\Windows Kits\\10\\Windows Performance '
   'Toolkit\\api-ms-win-core-sysinfo-l1-1-0.dll',
   'BINARY'),
  ('api-ms-win-core-profile-l1-1-0.dll',
   'C:\\Program Files (x86)\\Windows Kits\\10\\Windows Performance '
   'Toolkit\\api-ms-win-core-profile-l1-1-0.dll',
   'BINARY'),
  ('api-ms-win-core-localization-l1-2-0.dll',
   'C:\\Program Files (x86)\\Windows Kits\\10\\Windows Performance '
   'Toolkit\\api-ms-win-core-localization-l1-2-0.dll',
   'BINARY'),
  ('api-ms-win-core-errorhandling-l1-1-0.dll',
   'C:\\Program Files (x86)\\Windows Kits\\10\\Windows Performance '
   'Toolkit\\api-ms-win-core-errorhandling-l1-1-0.dll',
   'BINARY'),
  ('api-ms-win-core-console-l1-1-0.dll',
   'C:\\Program Files (x86)\\Windows Kits\\10\\Windows Performance '
   'Toolkit\\api-ms-win-core-console-l1-1-0.dll',
   'BINARY'),
  ('api-ms-win-core-file-l2-1-0.dll',
   'C:\\Program Files (x86)\\Windows Kits\\10\\Windows Performance '
   'Toolkit\\api-ms-win-core-file-l2-1-0.dll',
   'BINARY'),
  ('api-ms-win-core-memory-l1-1-0.dll',
   'C:\\Program Files (x86)\\Windows Kits\\10\\Windows Performance '
   'Toolkit\\api-ms-win-core-memory-l1-1-0.dll',
   'BINARY'),
  ('api-ms-win-core-interlocked-l1-1-0.dll',
   'C:\\Program Files (x86)\\Windows Kits\\10\\Windows Performance '
   'Toolkit\\api-ms-win-core-interlocked-l1-1-0.dll',
   'BINARY'),
  ('api-ms-win-core-timezone-l1-1-0.dll',
   'C:\\Program Files (x86)\\Windows Kits\\10\\Windows Performance '
   'Toolkit\\api-ms-win-core-timezone-l1-1-0.dll',
   'BINARY'),
  ('api-ms-win-core-synch-l1-2-0.dll',
   'C:\\Program Files (x86)\\Windows Kits\\10\\Windows Performance '
   'Toolkit\\api-ms-win-core-synch-l1-2-0.dll',
   'BINARY'),
  ('api-ms-win-core-debug-l1-1-0.dll',
   'C:\\Program Files (x86)\\Windows Kits\\10\\Windows Performance '
   'Toolkit\\api-ms-win-core-debug-l1-1-0.dll',
   'BINARY'),
  ('api-ms-win-core-synch-l1-1-0.dll',
   'C:\\Program Files (x86)\\Windows Kits\\10\\Windows Performance '
   'Toolkit\\api-ms-win-core-synch-l1-1-0.dll',
   'BINARY'),
  ('api-ms-win-core-libraryloader-l1-1-0.dll',
   'C:\\Program Files (x86)\\Windows Kits\\10\\Windows Performance '
   'Toolkit\\api-ms-win-core-libraryloader-l1-1-0.dll',
   'BINARY'),
  ('libopenblas.GK7GX5KEQ4F6UYO3P26ULGBQYHGQO7J4.gfortran-win_amd64.dll',
   'c:\\python39\\lib\\site-packages\\numpy\\.libs\\libopenblas.GK7GX5KEQ4F6UYO3P26ULGBQYHGQO7J4.gfortran-win_amd64.dll',
   'BINARY'),
  ('select', 'c:\\python39\\DLLs\\select.pyd', 'EXTENSION'),
  ('_overlapped', 'c:\\python39\\DLLs\\_overlapped.pyd', 'EXTENSION'),
  ('_ssl', 'c:\\python39\\DLLs\\_ssl.pyd', 'EXTENSION'),
  ('_asyncio', 'c:\\python39\\DLLs\\_asyncio.pyd', 'EXTENSION'),
  ('_queue', 'c:\\python39\\DLLs\\_queue.pyd', 'EXTENSION'),
  ('unicodedata', 'c:\\python39\\DLLs\\unicodedata.pyd', 'EXTENSION'),
  ('_ctypes', 'c:\\python39\\DLLs\\_ctypes.pyd', 'EXTENSION'),
  ('_multiprocessing', 'c:\\python39\\DLLs\\_multiprocessing.pyd', 'EXTENSION'),
  ('pyexpat', 'c:\\python39\\DLLs\\pyexpat.pyd', 'EXTENSION'),
  ('_decimal', 'c:\\python39\\DLLs\\_decimal.pyd', 'EXTENSION'),
  ('_hashlib', 'c:\\python39\\DLLs\\_hashlib.pyd', 'EXTENSION'),
  ('_uuid', 'c:\\python39\\DLLs\\_uuid.pyd', 'EXTENSION'),
  ('_socket', 'c:\\python39\\DLLs\\_socket.pyd', 'EXTENSION'),
  ('_lzma', 'c:\\python39\\DLLs\\_lzma.pyd', 'EXTENSION'),
  ('_bz2', 'c:\\python39\\DLLs\\_bz2.pyd', 'EXTENSION'),
  ('jnius.jnius',
   'c:\\python39\\lib\\site-packages\\jnius\\jnius.cp39-win_amd64.pyd',
   'EXTENSION'),
  ('numpy.core._multiarray_tests',
   'c:\\python39\\lib\\site-packages\\numpy\\core\\_multiarray_tests.cp39-win_amd64.pyd',
   'EXTENSION'),
  ('numpy.core._multiarray_umath',
   'c:\\python39\\lib\\site-packages\\numpy\\core\\_multiarray_umath.cp39-win_amd64.pyd',
   'EXTENSION'),
  ('numpy.linalg.lapack_lite',
   'c:\\python39\\lib\\site-packages\\numpy\\linalg\\lapack_lite.cp39-win_amd64.pyd',
   'EXTENSION'),
  ('numpy.random.mtrand',
   'c:\\python39\\lib\\site-packages\\numpy\\random\\mtrand.cp39-win_amd64.pyd',
   'EXTENSION'),
  ('numpy.random._sfc64',
   'c:\\python39\\lib\\site-packages\\numpy\\random\\_sfc64.cp39-win_amd64.pyd',
   'EXTENSION'),
  ('numpy.random._philox',
   'c:\\python39\\lib\\site-packages\\numpy\\random\\_philox.cp39-win_amd64.pyd',
   'EXTENSION'),
  ('numpy.random._pcg64',
   'c:\\python39\\lib\\site-packages\\numpy\\random\\_pcg64.cp39-win_amd64.pyd',
   'EXTENSION'),
  ('numpy.random._mt19937',
   'c:\\python39\\lib\\site-packages\\numpy\\random\\_mt19937.cp39-win_amd64.pyd',
   'EXTENSION'),
  ('numpy.random.bit_generator',
   'c:\\python39\\lib\\site-packages\\numpy\\random\\bit_generator.cp39-win_amd64.pyd',
   'EXTENSION'),
  ('numpy.random._generator',
   'c:\\python39\\lib\\site-packages\\numpy\\random\\_generator.cp39-win_amd64.pyd',
   'EXTENSION'),
  ('numpy.random._bounded_integers',
   'c:\\python39\\lib\\site-packages\\numpy\\random\\_bounded_integers.cp39-win_amd64.pyd',
   'EXTENSION'),
  ('numpy.random._common',
   'c:\\python39\\lib\\site-packages\\numpy\\random\\_common.cp39-win_amd64.pyd',
   'EXTENSION'),
  ('numpy.fft._pocketfft_internal',
   'c:\\python39\\lib\\site-packages\\numpy\\fft\\_pocketfft_internal.cp39-win_amd64.pyd',
   'EXTENSION'),
  ('numpy.linalg._umath_linalg',
   'c:\\python39\\lib\\site-packages\\numpy\\linalg\\_umath_linalg.cp39-win_amd64.pyd',
   'EXTENSION'),
  ('libssl-1_1.dll', 'c:\\python39\\DLLs\\libssl-1_1.dll', 'BINARY'),
  ('libcrypto-1_1.dll', 'c:\\python39\\DLLs\\libcrypto-1_1.dll', 'BINARY'),
  ('libffi-7.dll', 'c:\\python39\\DLLs\\libffi-7.dll', 'BINARY'),
  ('api-ms-win-crt-utility-l1-1-0.dll',
   'C:\\Program Files (x86)\\Windows Kits\\10\\Windows Performance '
   'Toolkit\\api-ms-win-crt-utility-l1-1-0.dll',
   'BINARY'),
  ('jvm.dll',
   'C:\\Program Files\\Java\\jdk1.8.0_251\\jre\\bin\\server\\jvm.dll',
   'BINARY'),
  ('MSVCR100.dll', 'C:\\JAVA\\bin\\MSVCR100.dll', 'BINARY')],
 [],
 [],
 [('base_library.zip',
   'D:\\PACMAN\\PACMAN_CUBERITE\\build\\to_geo\\base_library.zip',
   'DATA'),
  ('Include\\pyconfig.h', 'c:\\python39\\Include\\pyconfig.h', 'DATA')],
 [])
