('D:\\PACMAN\\PACMAN_CUBERITE\\dist\\to_geo.exe',
 True,
 False,
 False,
 None,
 None,
 False,
 False,
 '<?xml version="1.0" encoding="UTF-8" standalone="yes"?><assembly xmlns="urn:schemas-microsoft-com:asm.v1" manifestVersion="1.0"><assemblyIdentity type="win32" name="to_geo" processorArchitecture="amd64" version="1.0.0.0"/><trustInfo xmlns="urn:schemas-microsoft-com:asm.v3"><security><requestedPrivileges><requestedExecutionLevel level="asInvoker" uiAccess="false"/></requestedPrivileges></security></trustInfo><dependency><dependentAssembly><assemblyIdentity type="win32" name="Microsoft.Windows.Common-Controls" language="*" processorArchitecture="*" version="6.0.0.0" publicKeyToken="6595b64144ccf1df"/><compatibility xmlns="urn:schemas-microsoft-com:compatibility.v1"/></dependentAssembly></dependency><compatibility xmlns="urn:schemas-microsoft-com:compatibility.v1"><application><supportedOS Id="{e2011457-1546-43c5-a5fe-008deee3d3f0}"/><supportedOS Id="{35138b9a-5d96-4fbd-8e2d-a2440225f93a}"/><supportedOS Id="{4a2f28e3-53b9-4441-ba9c-d69d4a4a6e38}"/><supportedOS Id="{1f676c76-80e1-4239-95bb-83d0f6d0da78}"/><supportedOS Id="{8e0f7a12-bfb3-4fe8-b9a5-48fd50a15a9a}"/></application></compatibility></assembly>',
 True,
 'to_geo.pkg',
 [('PYZ-00.pyz',
   'D:\\PACMAN\\PACMAN_CUBERITE\\build\\to_geo\\PYZ-00.pyz',
   'PYZ'),
  ('struct', 'c:\\python39\\lib\\struct.pyo', 'PYMODULE'),
  ('pyimod01_os_path',
   'c:\\python39\\lib\\site-packages\\PyInstaller\\loader\\pyimod01_os_path.pyc',
   'PYMODULE'),
  ('pyimod02_archive',
   'c:\\python39\\lib\\site-packages\\PyInstaller\\loader\\pyimod02_archive.pyc',
   'PYMODULE'),
  ('pyimod03_importers',
   'c:\\python39\\lib\\site-packages\\PyInstaller\\loader\\pyimod03_importers.pyc',
   'PYMODULE'),
  ('pyiboot01_bootstrap',
   'c:\\python39\\lib\\site-packages\\PyInstaller\\loader\\pyiboot01_bootstrap.py',
   'PYSOURCE'),
  ('pyi_rth_multiprocessing',
   'C:\\Python39\\Lib\\site-packages\\PyInstaller\\hooks\\rthooks\\pyi_rth_multiprocessing.py',
   'PYSOURCE'),
  ('pyi_rth_pkgres',
   'C:\\Python39\\Lib\\site-packages\\PyInstaller\\hooks\\rthooks\\pyi_rth_pkgres.py',
   'PYSOURCE'),
  ('to_geo', 'D:\\PACMAN\\PACMAN_CUBERITE\\to_geo.py', 'PYSOURCE'),
  ('VCRUNTIME140.dll', 'c:\\python39\\VCRUNTIME140.dll', 'BINARY'),
  ('api-ms-win-crt-locale-l1-1-0.dll',
   'C:\\Program Files (x86)\\Windows Kits\\10\\Windows Performance '
   'Toolkit\\api-ms-win-crt-locale-l1-1-0.dll',
   'BINARY'),
  ('api-ms-win-crt-stdio-l1-1-0.dll',
   'C:\\Program Files (x86)\\Windows Kits\\10\\Windows Performance '
   'Toolkit\\api-ms-win-crt-stdio-l1-1-0.dll',
   'BINARY'),
  ('api-ms-win-crt-math-l1-1-0.dll',
   'C:\\Program Files (x86)\\Windows Kits\\10\\Windows Performance '
   'Toolkit\\api-ms-win-crt-math-l1-1-0.dll',
   'BINARY'),
  ('api-ms-win-crt-runtime-l1-1-0.dll',
   'C:\\Program Files (x86)\\Windows Kits\\10\\Windows Performance '
   'Toolkit\\api-ms-win-crt-runtime-l1-1-0.dll',
   'BINARY'),
  ('api-ms-win-crt-heap-l1-1-0.dll',
   'C:\\Program Files (x86)\\Windows Kits\\10\\Windows Performance '
   'Toolkit\\api-ms-win-crt-heap-l1-1-0.dll',
   'BINARY'),
  ('python39.dll', 'c:\\python39\\python39.dll', 'BINARY'),
  ('api-ms-win-crt-string-l1-1-0.dll',
   'C:\\Program Files (x86)\\Windows Kits\\10\\Windows Performance '
   'Toolkit\\api-ms-win-crt-string-l1-1-0.dll',
   'BINARY'),
  ('api-ms-win-crt-convert-l1-1-0.dll',
   'C:\\Program Files (x86)\\Windows Kits\\10\\Windows Performance '
   'Toolkit\\api-ms-win-crt-convert-l1-1-0.dll',
   'BINARY'),
  ('ucrtbase.dll',
   'C:\\Program Files (x86)\\Windows Kits\\10\\Windows Performance '
   'Toolkit\\ucrtbase.dll',
   'BINARY'),
  ('api-ms-win-crt-conio-l1-1-0.dll',
   'C:\\Program Files (x86)\\Windows Kits\\10\\Windows Performance '
   'Toolkit\\api-ms-win-crt-conio-l1-1-0.dll',
   'BINARY'),
  ('api-ms-win-crt-filesystem-l1-1-0.dll',
   'C:\\Program Files (x86)\\Windows Kits\\10\\Windows Performance '
   'Toolkit\\api-ms-win-crt-filesystem-l1-1-0.dll',
   'BINARY'),
  ('api-ms-win-crt-time-l1-1-0.dll',
   'C:\\Program Files (x86)\\Windows Kits\\10\\Windows Performance '
   'Toolkit\\api-ms-win-crt-time-l1-1-0.dll',
   'BINARY'),
  ('api-ms-win-crt-environment-l1-1-0.dll',
   'C:\\Program Files (x86)\\Windows Kits\\10\\Windows Performance '
   'Toolkit\\api-ms-win-crt-environment-l1-1-0.dll',
   'BINARY'),
  ('api-ms-win-crt-process-l1-1-0.dll',
   'C:\\Program Files (x86)\\Windows Kits\\10\\Windows Performance '
   'Toolkit\\api-ms-win-crt-process-l1-1-0.dll',
   'BINARY'),
  ('api-ms-win-core-processthreads-l1-1-0.dll',
   'C:\\Program Files (x86)\\Windows Kits\\10\\Windows Performance '
   'Toolkit\\api-ms-win-core-processthreads-l1-1-0.dll',
   'BINARY'),
  ('api-ms-win-core-namedpipe-l1-1-0.dll',
   'C:\\Program Files (x86)\\Windows Kits\\10\\Windows Performance '
   'Toolkit\\api-ms-win-core-namedpipe-l1-1-0.dll',
   'BINARY'),
  ('api-ms-win-core-string-l1-1-0.dll',
   'C:\\Program Files (x86)\\Windows Kits\\10\\Windows Performance '
   'Toolkit\\api-ms-win-core-string-l1-1-0.dll',
   'BINARY'),
  ('api-ms-win-core-datetime-l1-1-0.dll',
   'C:\\Program Files (x86)\\Windows Kits\\10\\Windows Performance '
   'Toolkit\\api-ms-win-core-datetime-l1-1-0.dll',
   'BINARY'),
  ('api-ms-win-core-file-l1-2-0.dll',
   'C:\\Program Files (x86)\\Windows Kits\\10\\Windows Performance '
   'Toolkit\\api-ms-win-core-file-l1-2-0.dll',
   'BINARY'),
  ('api-ms-win-core-util-l1-1-0.dll',
   'C:\\Program Files (x86)\\Windows Kits\\10\\Windows Performance '
   'Toolkit\\api-ms-win-core-util-l1-1-0.dll',
   'BINARY'),
  ('api-ms-win-core-handle-l1-1-0.dll',
   'C:\\Program Files (x86)\\Windows Kits\\10\\Windows Performance '
   'Toolkit\\api-ms-win-core-handle-l1-1-0.dll',
   'BINARY'),
  ('api-ms-win-core-processenvironment-l1-1-0.dll',
   'C:\\Program Files (x86)\\Windows Kits\\10\\Windows Performance '
   'Toolkit\\api-ms-win-core-processenvironment-l1-1-0.dll',
   'BINARY'),
  ('api-ms-win-core-processthreads-l1-1-1.dll',
   'C:\\Program Files (x86)\\Windows Kits\\10\\Windows Performance '
   'Toolkit\\api-ms-win-core-processthreads-l1-1-1.dll',
   'BINARY'),
  ('api-ms-win-core-rtlsupport-l1-1-0.dll',
   'C:\\Program Files (x86)\\Windows Kits\\10\\Windows Performance '
   'Toolkit\\api-ms-win-core-rtlsupport-l1-1-0.dll',
   'BINARY'),
  ('api-ms-win-core-heap-l1-1-0.dll',
   'C:\\Program Files (x86)\\Windows Kits\\10\\Windows Performance '
   'Toolkit\\api-ms-win-core-heap-l1-1-0.dll',
   'BINARY'),
  ('api-ms-win-core-file-l1-1-0.dll',
   'C:\\Program Files (x86)\\Windows Kits\\10\\Windows Performance '
   'Toolkit\\api-ms-win-core-file-l1-1-0.dll',
   'BINARY'),
  ('api-ms-win-core-sysinfo-l1-1-0.dll',
   'C:\\Program Files (x86)\\Windows Kits\\10\\Windows Performance '
   'Toolkit\\api-ms-win-core-sysinfo-l1-1-0.dll',
   'BINARY'),
  ('api-ms-win-core-profile-l1-1-0.dll',
   'C:\\Program Files (x86)\\Windows Kits\\10\\Windows Performance '
   'Toolkit\\api-ms-win-core-profile-l1-1-0.dll',
   'BINARY'),
  ('api-ms-win-core-localization-l1-2-0.dll',
   'C:\\Program Files (x86)\\Windows Kits\\10\\Windows Performance '
   'Toolkit\\api-ms-win-core-localization-l1-2-0.dll',
   'BINARY'),
  ('api-ms-win-core-errorhandling-l1-1-0.dll',
   'C:\\Program Files (x86)\\Windows Kits\\10\\Windows Performance '
   'Toolkit\\api-ms-win-core-errorhandling-l1-1-0.dll',
   'BINARY'),
  ('api-ms-win-core-console-l1-1-0.dll',
   'C:\\Program Files (x86)\\Windows Kits\\10\\Windows Performance '
   'Toolkit\\api-ms-win-core-console-l1-1-0.dll',
   'BINARY'),
  ('api-ms-win-core-file-l2-1-0.dll',
   'C:\\Program Files (x86)\\Windows Kits\\10\\Windows Performance '
   'Toolkit\\api-ms-win-core-file-l2-1-0.dll',
   'BINARY'),
  ('api-ms-win-core-memory-l1-1-0.dll',
   'C:\\Program Files (x86)\\Windows Kits\\10\\Windows Performance '
   'Toolkit\\api-ms-win-core-memory-l1-1-0.dll',
   'BINARY'),
  ('api-ms-win-core-interlocked-l1-1-0.dll',
   'C:\\Program Files (x86)\\Windows Kits\\10\\Windows Performance '
   'Toolkit\\api-ms-win-core-interlocked-l1-1-0.dll',
   'BINARY'),
  ('api-ms-win-core-timezone-l1-1-0.dll',
   'C:\\Program Files (x86)\\Windows Kits\\10\\Windows Performance '
   'Toolkit\\api-ms-win-core-timezone-l1-1-0.dll',
   'BINARY'),
  ('api-ms-win-core-synch-l1-2-0.dll',
   'C:\\Program Files (x86)\\Windows Kits\\10\\Windows Performance '
   'Toolkit\\api-ms-win-core-synch-l1-2-0.dll',
   'BINARY'),
  ('api-ms-win-core-debug-l1-1-0.dll',
   'C:\\Program Files (x86)\\Windows Kits\\10\\Windows Performance '
   'Toolkit\\api-ms-win-core-debug-l1-1-0.dll',
   'BINARY'),
  ('api-ms-win-core-synch-l1-1-0.dll',
   'C:\\Program Files (x86)\\Windows Kits\\10\\Windows Performance '
   'Toolkit\\api-ms-win-core-synch-l1-1-0.dll',
   'BINARY'),
  ('api-ms-win-core-libraryloader-l1-1-0.dll',
   'C:\\Program Files (x86)\\Windows Kits\\10\\Windows Performance '
   'Toolkit\\api-ms-win-core-libraryloader-l1-1-0.dll',
   'BINARY'),
  ('libopenblas.GK7GX5KEQ4F6UYO3P26ULGBQYHGQO7J4.gfortran-win_amd64.dll',
   'c:\\python39\\lib\\site-packages\\numpy\\.libs\\libopenblas.GK7GX5KEQ4F6UYO3P26ULGBQYHGQO7J4.gfortran-win_amd64.dll',
   'BINARY'),
  ('select', 'c:\\python39\\DLLs\\select.pyd', 'EXTENSION'),
  ('_overlapped', 'c:\\python39\\DLLs\\_overlapped.pyd', 'EXTENSION'),
  ('_ssl', 'c:\\python39\\DLLs\\_ssl.pyd', 'EXTENSION'),
  ('_asyncio', 'c:\\python39\\DLLs\\_asyncio.pyd', 'EXTENSION'),
  ('_queue', 'c:\\python39\\DLLs\\_queue.pyd', 'EXTENSION'),
  ('unicodedata', 'c:\\python39\\DLLs\\unicodedata.pyd', 'EXTENSION'),
  ('_ctypes', 'c:\\python39\\DLLs\\_ctypes.pyd', 'EXTENSION'),
  ('_multiprocessing', 'c:\\python39\\DLLs\\_multiprocessing.pyd', 'EXTENSION'),
  ('pyexpat', 'c:\\python39\\DLLs\\pyexpat.pyd', 'EXTENSION'),
  ('_decimal', 'c:\\python39\\DLLs\\_decimal.pyd', 'EXTENSION'),
  ('_hashlib', 'c:\\python39\\DLLs\\_hashlib.pyd', 'EXTENSION'),
  ('_uuid', 'c:\\python39\\DLLs\\_uuid.pyd', 'EXTENSION'),
  ('_socket', 'c:\\python39\\DLLs\\_socket.pyd', 'EXTENSION'),
  ('_lzma', 'c:\\python39\\DLLs\\_lzma.pyd', 'EXTENSION'),
  ('_bz2', 'c:\\python39\\DLLs\\_bz2.pyd', 'EXTENSION'),
  ('jnius.jnius',
   'c:\\python39\\lib\\site-packages\\jnius\\jnius.cp39-win_amd64.pyd',
   'EXTENSION'),
  ('numpy.core._multiarray_tests',
   'c:\\python39\\lib\\site-packages\\numpy\\core\\_multiarray_tests.cp39-win_amd64.pyd',
   'EXTENSION'),
  ('numpy.core._multiarray_umath',
   'c:\\python39\\lib\\site-packages\\numpy\\core\\_multiarray_umath.cp39-win_amd64.pyd',
   'EXTENSION'),
  ('numpy.linalg.lapack_lite',
   'c:\\python39\\lib\\site-packages\\numpy\\linalg\\lapack_lite.cp39-win_amd64.pyd',
   'EXTENSION'),
  ('numpy.random.mtrand',
   'c:\\python39\\lib\\site-packages\\numpy\\random\\mtrand.cp39-win_amd64.pyd',
   'EXTENSION'),
  ('numpy.random._sfc64',
   'c:\\python39\\lib\\site-packages\\numpy\\random\\_sfc64.cp39-win_amd64.pyd',
   'EXTENSION'),
  ('numpy.random._philox',
   'c:\\python39\\lib\\site-packages\\numpy\\random\\_philox.cp39-win_amd64.pyd',
   'EXTENSION'),
  ('numpy.random._pcg64',
   'c:\\python39\\lib\\site-packages\\numpy\\random\\_pcg64.cp39-win_amd64.pyd',
   'EXTENSION'),
  ('numpy.random._mt19937',
   'c:\\python39\\lib\\site-packages\\numpy\\random\\_mt19937.cp39-win_amd64.pyd',
   'EXTENSION'),
  ('numpy.random.bit_generator',
   'c:\\python39\\lib\\site-packages\\numpy\\random\\bit_generator.cp39-win_amd64.pyd',
   'EXTENSION'),
  ('numpy.random._generator',
   'c:\\python39\\lib\\site-packages\\numpy\\random\\_generator.cp39-win_amd64.pyd',
   'EXTENSION'),
  ('numpy.random._bounded_integers',
   'c:\\python39\\lib\\site-packages\\numpy\\random\\_bounded_integers.cp39-win_amd64.pyd',
   'EXTENSION'),
  ('numpy.random._common',
   'c:\\python39\\lib\\site-packages\\numpy\\random\\_common.cp39-win_amd64.pyd',
   'EXTENSION'),
  ('numpy.fft._pocketfft_internal',
   'c:\\python39\\lib\\site-packages\\numpy\\fft\\_pocketfft_internal.cp39-win_amd64.pyd',
   'EXTENSION'),
  ('numpy.linalg._umath_linalg',
   'c:\\python39\\lib\\site-packages\\numpy\\linalg\\_umath_linalg.cp39-win_amd64.pyd',
   'EXTENSION'),
  ('libssl-1_1.dll', 'c:\\python39\\DLLs\\libssl-1_1.dll', 'BINARY'),
  ('libcrypto-1_1.dll', 'c:\\python39\\DLLs\\libcrypto-1_1.dll', 'BINARY'),
  ('libffi-7.dll', 'c:\\python39\\DLLs\\libffi-7.dll', 'BINARY'),
  ('api-ms-win-crt-utility-l1-1-0.dll',
   'C:\\Program Files (x86)\\Windows Kits\\10\\Windows Performance '
   'Toolkit\\api-ms-win-crt-utility-l1-1-0.dll',
   'BINARY'),
  ('jvm.dll',
   'C:\\Program Files\\Java\\jdk1.8.0_251\\jre\\bin\\server\\jvm.dll',
   'BINARY'),
  ('MSVCR100.dll', 'C:\\JAVA\\bin\\MSVCR100.dll', 'BINARY'),
  ('base_library.zip',
   'D:\\PACMAN\\PACMAN_CUBERITE\\build\\to_geo\\base_library.zip',
   'DATA'),
  ('Include\\pyconfig.h', 'c:\\python39\\Include\\pyconfig.h', 'DATA'),
  ('to_geo.exe.manifest',
   'D:\\PACMAN\\PACMAN_CUBERITE\\build\\to_geo\\to_geo.exe.manifest',
   'BINARY'),
  ('pyi-windows-manifest-filename to_geo.exe.manifest', '', 'OPTION')],
 [],
 False,
 False,
 1635604468,
 [('run.exe',
   'c:\\python39\\lib\\site-packages\\PyInstaller\\bootloader\\Windows-64bit\\run.exe',
   'EXECUTABLE')])
